{
    "userCart": [{
            "wine": [{
                    "qty": 2,
                    "totalQty": "2",
                    "id": "A002",
                    "marque": "Notre Vin",
                    "modele": "Sauvignion",
                    "photo": "view\/content\/images\/products\/wine_2.png",
                    "price": "550",
                    "totalWinePrice": 400,
                    "aWineSubTotal": 1100
                }, {
                    "qty": 1,
                    "totalQty": "6",
                    "id": "A003",
                    "marque": "Notre Vin",
                    "modele": "St-Valentin",
                    "photo": "view\/content\/images\/products\/wine_3.png",
                    "price": "400",
                    "totalWinePrice": 400,
                    "aWineSubTotal": 400
                }],
            "cart": {
                "total": 1500
            }
        }]
}