{
  "transports": [
    {
      "cff_aller": "data/CFF/CFF_aller.png",
      "cff_retour": "data/CFF/CFF_retour.png"
    },
    {
      "sncf_aller": "data/SNCF/sncf_aller.png",
      "sncf_retour": "data/SNCF/sncf_retour.png"
    },
    {
      "avion_aller": "",
      "avion_retour": ""
    },
    {}
  ],
  "temp": [
    {}
  ]
}