[
  {
    "personnes": [
      {
        "id": 1,
        "firstname": "Luca",
        "lastname": "Bassi",
        "age": "28",
        "mail": "luca.bassi@cpnv.ch",
        "noIdentite": "13579",
        "address": [
          {
            "rue": "Rue des Rosiers",
            "numero": "13"
          },
          {
            "country": "Suisse",
            "city": "Ste-Croix",
            "npa": "1450"
          }
        ],
        "conditions": "on",
        "typeAbonnement": "Demi tarif",
        "messagePerso": "Je suis v\u00e9g\u00e9tarien.",
        "photo": "upload\/1-Luca-Bassi-20190630_162505.jpg"
      },
      {
        "id": 2,
        "firstname": "Harry",
        "lastname": "Potter",
        "age": "25",
        "mail": "harry.potter@poudlard.mag",
        "noIdentite": "777",
        "address": [
          {
            "rue": "Privet Drive",
            "numero": "4"
          },
          {
            "country": "England",
            "city": "Little Whinging, Surrey ",
            "npa": "16700"
          }
        ],
        "conditions": "on",
        "typeAbonnement": "Abonnement Genenal",
        "messagePerso": "je m appel Harry Poter ",
        "photo": "upload\/2-Hary-Poter-harry-harry-potters-women-2967796-1440-1920.jpg"
      }
    ]
  }
]